{
  "version": "0.1.2",
  "description": "Snap to interact with Partisia Blockchain",
  "proposedName": "Partisia Blockchain",
  "repository": {
    "type": "git",
    "url": "https://gitlab.com/partisiablockchain/tools/snap"
  },
  "source": {
    "shasum": "xrF1SkRRiUN/iuuxTO3lzF/gTciYRVVSzRap5soRhnA=",
    "location": {
      "npm": {
        "filePath": "dist/bundle.js",
        "iconPath": "images/icon.svg",
        "packageName": "@partisiablockchain/snap",
        "registry": "https://registry.npmjs.org/"
      }
    }
  },
  "initialPermissions": {
    "snap_getBip44Entropy": [
      {
        "coinType": 3757
      }
    ],
    "snap_dialog": {},
    "endowment:rpc": {
      "dapps": true,
      "snaps": false
    }
  },
  "manifestVersion": "0.1"
}
